{
  "operator1": {
    "operator1": null,
    "operator2": null,
    "operation": null,
    "value": 3
  },
  "operator2": {
    "operator1": {
      "operator1": null,
      "operator2": null,
      "operation": null,
      "value": 7
    },
    "operator2": {
      "operator1": null,
      "operator2": null,
      "operation": null,
      "value": 14
    },
    "operation": "ADD",
    "value": null
  },
  "operation": "ADD",
  "value": null
}